I/O Register Combining Report
Microsemi Corporation - Microsemi Libero Software Release v12.0 (Version 12.500.0.22)
Date: Wed Jan 30 17:16:22 2019

I/O Register Combining Summary
+
+

I/O DDR Register Combining Summary
+
+

