********************************************************************
I/O Bank Report - Date: Wed Jan 30 17:16:22 2019
Product: Designer
Release: v12.0
Version: 12.500.0.22
Design Name: migou_sf2_25_v1
Family: SmartFusion2
Die: M2S025
Package: 484 FBGA
********************************************************************


I/O Function:

    Type                                  | w/o register  | w/ register  | w/ DDR register
    --------------------------------------|---------------|--------------|----------------
    Input I/O                             | 4             | 0            | 0
    Output I/O                            | 6             | 0            | 0
    Bidirectional I/O                     | 26            | 0            | 0
    Differential Input I/O Pairs          | 0             | 0            | 0
    Differential Output I/O Pairs         | 0             | 0            | 0

I/O Technology:

                                    |   Voltages    |             I/Os              
    --------------------------------|-------|-------|-------|--------|--------------
    I/O Standard(s)                 | Vddi  | Vref  | Input | Output | Bidirectional
    --------------------------------|-------|-------|-------|--------|--------------
    LVCMOS25                        | 2.50v | N/A   | 4     | 6      | 26           

I/O Bank Resource Usage:

          |   Voltages    | Single I/Os  | Diff I/O Pairs |        Vref I/Os        |  Type   
          |-------|-------|------|-------|-------|--------|------|-------|----------|---------
          | Vddi  | Vref  | Used | Total | Used  | Total  | Used | Total | Vref Pins|         
    ------|-------|-------|------|-------|-------|--------|------|-------|----------|---------
    Bank0 | N/A   | N/A   | 0    | 70    | 0     | 35     | N/A  | N/A   | N/A      | DDRIO   
    Bank1 | 2.50v | N/A   | 13   | 21    | 0     | 10     | N/A  | N/A   | N/A      | MSIO    
    Bank2 | 2.50v | N/A   | 14   | 44    | 0     | 22     | N/A  | N/A   | N/A      | MSIO    
    Bank3 | N/A   | N/A   | 0    | 0     | 0     | 0      | N/A  | N/A   | N/A      | JTAG    
    Bank4 | N/A   | N/A   | 0    | 52    | 0     | 26     | N/A  | N/A   | N/A      | MSIO    
    Bank5 | 2.50v | N/A   | 4    | 4     | 0     | 2      | N/A  | N/A   | N/A      | MSIOD   
    Bank6 | 2.50v | N/A   | 3    | 36    | 0     | 18     | N/A  | N/A   | N/A      | MSIOD   
    Bank7 | 2.50v | N/A   | 2    | 40    | 0     | 20     | N/A  | N/A   | N/A      | MSIO    

I/O Voltage Usage:

       Voltages    |     I/Os     
    -------|-------|------|-------
     Vddi  | Vref  | Used | Total 
    -------|-------|------|-------
     2.50v | N/A   | 36   | 145   

